<?xml version="1.0" encoding="utf-8"?>
<!-- Generator: Adobe Illustrator 16.0.0, SVG Export Plug-In . SVG Version: 6.00 Build 0)  -->
<!DOCTYPE svg PUBLIC "-//W3C//DTD SVG 1.1//EN" "http://www.w3.org/Graphics/SVG/1.1/DTD/svg11.dtd">
<svg version="1.1" id="Layer_1" xmlns="http://www.w3.org/2000/svg" xmlns:xlink="http://www.w3.org/1999/xlink" x="0px" y="0px"
	 width="111px" height="79px" viewBox="0 0 111 79" style="enable-background:new 0 0 111 79;" xml:space="preserve">
<path style="fill-rule:evenodd;clip-rule:evenodd;fill:#FDFDFC;" d="M45.416,36.375c-0.096-0.094-0.191-0.186-0.287-0.279
	c0.071-0.176,0.122-0.362,0.213-0.527c2.875-5.188,5.755-10.372,8.632-15.558c1.603-2.892,3.182-5.798,4.814-8.674
	c0.509-0.898,0.647-1.727-0.357-2.25c-0.989-0.518-1.501,0.237-1.915,1.012c-0.169,0.318-0.351,0.629-0.525,0.945
	c-4.149,7.505-8.288,15.017-12.477,22.5c-0.286,0.512-0.321,1.377-1.323,1.441c1.641-6.383,3.264-12.714,4.896-19.043
	c0.788-3.056,1.62-6.102,2.379-9.165c0.316-1.273-0.229-2.055-1.243-1.973c-1.018,0.082-1.178,0.935-1.365,1.661
	c-1.529,5.905-2.982,11.83-4.549,17.725c-0.817,3.074-1.45,6.206-2.692,9.631c0-0.914,0-1.365,0-1.814
	c0-8.818,0.003-17.635-0.007-26.453c0-0.656,0.157-1.352-0.355-1.931c-0.541-0.611-1.175-0.82-1.949-0.526
	c-1.079,0.41-1.166,1.296-1.165,2.287c0.013,13.382,0.006,26.764,0.011,40.146c0,2.059,0.502,2.545,2.58,2.546
	c13.174,0.003,26.349,0.003,39.523,0.003c0.467,0,0.94,0.037,1.398-0.03c0.969-0.145,1.42-0.793,1.443-1.727
	c0.022-0.907-0.469-1.469-1.348-1.631c-0.453-0.084-0.93-0.068-1.396-0.068c-8.766,0.005-17.53,0.018-26.296,0.021
	c-0.511,0-1.106,0.188-1.478-0.494c0.351-0.126,0.634-0.246,0.929-0.33c8.796-2.488,17.594-4.984,26.397-7.449
	c0.975-0.272,1.927-0.565,1.59-1.793c-0.352-1.285-1.458-0.951-2.336-0.703c-8.402,2.376-16.787,4.813-25.201,7.147
	c-1.096,0.303-2.178,1.015-3.583,0.695c8.556-5.006,16.946-9.921,25.344-14.82c0.858-0.499,1.503-1.133,0.94-2.106
	c-0.596-1.032-1.513-0.606-2.303-0.148c-4.639,2.697-9.274,5.399-13.904,8.113c-3.2,1.876-6.369,3.803-9.589,5.644
	c-0.704,0.401-1.378,1.057-2.392,0.869c4.978-5.189,9.909-10.326,14.836-15.466c1.787-1.865,3.575-3.73,5.347-5.611
	c0.582-0.617,0.628-1.293-0.012-1.914c-0.622-0.602-1.232-0.376-1.797,0.104c-0.273,0.233-0.512,0.509-0.762,0.771
	c-5.209,5.448-10.41,10.905-15.633,16.34C47.485,34.496,46.43,35.416,45.416,36.375z"/>
<path style="fill-rule:evenodd;clip-rule:evenodd;fill:#FDFDFC;" d="M71.309,11.201c0.126-2.747-0.928-4.846-2.803-6.593
	c-0.494-0.46-1.06-0.822-1.612-0.239c-0.62,0.651-0.021,1.11,0.442,1.533c2.241,2.046,2.836,4.454,1.69,7.301
	c-0.514,1.279-0.023,1.884,1.267,1.509c3.098-0.902,5.479,0.026,7.283,2.619c0.342,0.491,0.787,0.754,1.31,0.431
	c0.643-0.397,0.437-0.954,0.083-1.467c-1.532-2.22-3.61-3.605-6.33-3.638C71.316,12.641,70.84,12.367,71.309,11.201z"/>
<g>
	<path style="fill-rule:evenodd;clip-rule:evenodd;fill:#EB6032;" d="M45.416,36.375c1.014-0.959,2.069-1.879,3.035-2.884
		c5.224-5.435,10.424-10.892,15.633-16.34c0.25-0.262,0.488-0.538,0.762-0.771c0.564-0.48,1.175-0.707,1.797-0.104
		c0.64,0.621,0.594,1.297,0.012,1.914c-1.771,1.881-3.56,3.746-5.347,5.611c-4.928,5.14-9.858,10.277-14.836,15.466
		c1.014,0.188,1.688-0.468,2.392-0.869c3.22-1.841,6.389-3.768,9.589-5.644c4.63-2.714,9.266-5.416,13.904-8.113
		c0.79-0.458,1.707-0.884,2.303,0.148c0.563,0.973-0.082,1.607-0.94,2.106c-8.398,4.899-16.788,9.814-25.344,14.82
		c1.404,0.319,2.487-0.393,3.583-0.695c8.414-2.335,16.799-4.771,25.201-7.147c0.878-0.248,1.984-0.582,2.336,0.703
		c0.337,1.228-0.615,1.521-1.59,1.793c-8.803,2.465-17.601,4.961-26.397,7.449c-0.295,0.084-0.578,0.204-0.929,0.33
		c0.372,0.682,0.967,0.494,1.478,0.494c8.766-0.003,17.53-0.016,26.296-0.021c0.466,0,0.942-0.016,1.396,0.068
		c0.879,0.162,1.37,0.724,1.348,1.631c-0.023,0.934-0.475,1.582-1.443,1.727c-0.458,0.067-0.932,0.03-1.398,0.03
		c-13.175,0-26.349,0-39.523-0.003c-2.077-0.001-2.579-0.487-2.58-2.546c-0.005-13.382,0.002-26.764-0.011-40.146
		c-0.001-0.991,0.086-1.877,1.165-2.287c0.773-0.294,1.408-0.085,1.949,0.526c0.512,0.579,0.354,1.274,0.355,1.931
		c0.011,8.818,0.007,17.635,0.007,26.453c0,0.449,0,0.9,0,1.814c1.243-3.426,1.875-6.558,2.692-9.631
		c1.567-5.895,3.02-11.82,4.549-17.725c0.188-0.726,0.348-1.579,1.365-1.661c1.015-0.082,1.559,0.7,1.243,1.973
		c-0.759,3.063-1.591,6.109-2.379,9.165c-1.632,6.329-3.255,12.66-4.896,19.043c1.001-0.064,1.037-0.93,1.323-1.441
		c4.189-7.483,8.327-14.995,12.477-22.5c0.175-0.315,0.356-0.626,0.525-0.945c0.414-0.775,0.926-1.53,1.915-1.012
		c1.005,0.524,0.866,1.352,0.357,2.25c-1.632,2.876-3.211,5.782-4.814,8.674c-2.877,5.186-5.756,10.37-8.632,15.558
		c-0.091,0.165-0.142,0.352-0.213,0.527C45.225,36.189,45.32,36.281,45.416,36.375z"/>
	<path style="fill-rule:evenodd;clip-rule:evenodd;fill:#2D2A2B;" d="M71.309,11.201c-0.469,1.167,0.008,1.44,1.33,1.457
		c2.72,0.033,4.798,1.418,6.33,3.638c0.354,0.513,0.56,1.07-0.083,1.467c-0.522,0.323-0.968,0.061-1.31-0.431
		c-1.805-2.593-4.186-3.521-7.283-2.619c-1.29,0.375-1.78-0.23-1.267-1.509c1.146-2.847,0.551-5.255-1.69-7.301
		c-0.463-0.423-1.063-0.882-0.442-1.533c0.553-0.583,1.118-0.221,1.612,0.239C70.381,6.355,71.435,8.454,71.309,11.201z"/>
</g>
<g>
	<path style="fill:#292526;" d="M10.03,57.441c0.688-0.116,1.653-0.204,3.015-0.204c1.375,0,2.355,0.263,3.014,0.79
		c0.629,0.497,1.054,1.316,1.054,2.282s-0.322,1.785-0.907,2.342c-0.761,0.717-1.888,1.039-3.205,1.039
		c-0.293,0-0.556-0.015-0.761-0.044v3.526H10.03V57.441z M12.24,61.92c0.19,0.044,0.424,0.059,0.747,0.059
		c1.185,0,1.917-0.601,1.917-1.61c0-0.907-0.629-1.448-1.742-1.448c-0.454,0-0.761,0.044-0.922,0.088V61.92z"/>
	<path style="fill:#292526;" d="M19.95,64.642l-0.702,2.531h-2.313l3.015-9.862h2.927l3.058,9.862h-2.4l-0.761-2.531H19.95z
		 M22.453,62.973l-0.615-2.092c-0.176-0.586-0.351-1.317-0.498-1.902h-0.029c-0.146,0.585-0.292,1.331-0.454,1.902l-0.585,2.092
		H22.453z"/>
	<path style="fill:#292526;" d="M27.324,64.875c0.6,0.308,1.522,0.615,2.473,0.615c1.024,0,1.565-0.425,1.565-1.068
		c0-0.614-0.468-0.966-1.653-1.391c-1.639-0.57-2.708-1.478-2.708-2.911c0-1.684,1.405-2.971,3.732-2.971
		c1.112,0,1.931,0.233,2.517,0.497l-0.498,1.8c-0.395-0.19-1.097-0.468-2.063-0.468s-1.434,0.438-1.434,0.951
		c0,0.629,0.556,0.907,1.829,1.39c1.741,0.645,2.561,1.552,2.561,2.941c0,1.653-1.273,3.059-3.98,3.059
		c-1.127,0-2.239-0.293-2.795-0.601L27.324,64.875z"/>
	<path style="fill:#292526;" d="M35.224,64.875c0.6,0.308,1.522,0.615,2.473,0.615c1.024,0,1.565-0.425,1.565-1.068
		c0-0.614-0.468-0.966-1.653-1.391c-1.639-0.57-2.708-1.478-2.708-2.911c0-1.684,1.405-2.971,3.732-2.971
		c1.112,0,1.931,0.233,2.517,0.497l-0.498,1.8c-0.395-0.19-1.097-0.468-2.063-0.468s-1.434,0.438-1.434,0.951
		c0,0.629,0.556,0.907,1.829,1.39c1.741,0.645,2.561,1.552,2.561,2.941c0,1.653-1.273,3.059-3.98,3.059
		c-1.127,0-2.239-0.293-2.795-0.601L35.224,64.875z"/>
	<path style="fill:#292526;" d="M45.291,57.311v9.862h-2.239v-9.862H45.291z"/>
	<path style="fill:#292526;" d="M56.25,62.139c0,3.234-1.961,5.195-4.844,5.195c-2.927,0-4.639-2.21-4.639-5.02
		c0-2.956,1.888-5.165,4.8-5.165C54.596,57.149,56.25,59.417,56.25,62.139z M49.124,62.271c0,1.932,0.907,3.293,2.4,3.293
		c1.507,0,2.371-1.435,2.371-3.352c0-1.771-0.849-3.292-2.385-3.292C50.001,58.92,49.124,60.354,49.124,62.271z"/>
	<path style="fill:#292526;" d="M57.712,67.173v-9.862h2.604l2.049,3.614c0.585,1.039,1.171,2.268,1.609,3.38h0.044
		c-0.146-1.303-0.19-2.634-0.19-4.112v-2.882h2.049v9.862h-2.341l-2.107-3.805c-0.585-1.054-1.229-2.326-1.712-3.482L59.673,59.9
		c0.059,1.302,0.088,2.692,0.088,4.302v2.971H57.712z"/>
	<path style="fill:#F1592B;" d="M70.762,57.311h2.239V65.3h3.921v1.873h-6.16V57.311z"/>
	<path style="fill:#F1592B;" d="M84.106,63.002h-3.629v2.342h4.053v1.829h-6.292v-9.862h6.087v1.829h-3.848v2.048h3.629V63.002z"/>
	<path style="fill:#F1592B;" d="M88.349,64.642l-0.703,2.531h-2.312l3.015-9.862h2.926l3.059,9.862h-2.399l-0.762-2.531H88.349z
		 M90.851,62.973l-0.614-2.092c-0.176-0.586-0.352-1.317-0.498-1.902h-0.029c-0.146,0.585-0.293,1.331-0.453,1.902l-0.586,2.092
		H90.851z"/>
	<path style="fill:#F1592B;" d="M95.648,57.441c0.688-0.116,1.653-0.204,3.015-0.204c1.375,0,2.355,0.263,3.015,0.79
		c0.629,0.497,1.053,1.316,1.053,2.282s-0.321,1.785-0.907,2.342c-0.761,0.717-1.888,1.039-3.204,1.039
		c-0.293,0-0.557-0.015-0.761-0.044v3.526h-2.21V57.441z M97.858,61.92c0.189,0.044,0.424,0.059,0.746,0.059
		c1.186,0,1.917-0.601,1.917-1.61c0-0.907-0.63-1.448-1.741-1.448c-0.454,0-0.762,0.044-0.922,0.088V61.92z"/>
</g>
<g>
	<path d="M14.864,72.192v1.715h-0.252v-3.95h1.087c0.437,0,0.762,0.099,0.975,0.297c0.213,0.198,0.319,0.475,0.319,0.829
		c0,0.362-0.11,0.638-0.331,0.826c-0.221,0.189-0.542,0.283-0.964,0.283H14.864z M16.736,71.083c0-0.295-0.083-0.519-0.247-0.672
		c-0.165-0.153-0.434-0.23-0.807-0.23h-0.818v1.788h0.818C16.385,71.969,16.736,71.674,16.736,71.083z"/>
	<path d="M19.801,71.086c0.228,0.174,0.383,0.402,0.465,0.687v-0.908h0.252v3.043h-0.252v-0.908
		c-0.082,0.284-0.237,0.513-0.465,0.687c-0.228,0.174-0.508,0.261-0.841,0.261c-0.284,0-0.535-0.063-0.753-0.188
		c-0.219-0.125-0.39-0.307-0.513-0.544c-0.124-0.236-0.185-0.515-0.185-0.832s0.062-0.594,0.185-0.829
		c0.123-0.235,0.294-0.415,0.513-0.541c0.218-0.125,0.47-0.188,0.753-0.188C19.292,70.825,19.573,70.912,19.801,71.086z
		 M18.105,71.408c-0.226,0.239-0.339,0.564-0.339,0.975c0,0.415,0.112,0.742,0.336,0.98c0.224,0.239,0.528,0.359,0.913,0.359
		c0.239,0,0.454-0.056,0.645-0.166c0.19-0.109,0.339-0.267,0.445-0.471c0.106-0.203,0.16-0.438,0.16-0.703
		c0-0.265-0.053-0.498-0.16-0.7c-0.106-0.201-0.255-0.357-0.445-0.468s-0.405-0.165-0.645-0.165
		C18.635,71.05,18.332,71.169,18.105,71.408z"/>
	<path d="M23.051,71.08c0.194,0.17,0.31,0.403,0.347,0.698h-0.241c-0.022-0.217-0.109-0.397-0.261-0.541s-0.355-0.216-0.613-0.216
		c-0.228,0-0.406,0.056-0.535,0.168s-0.193,0.262-0.193,0.448c0,0.139,0.038,0.249,0.115,0.331s0.17,0.143,0.28,0.182
		s0.264,0.083,0.462,0.132c0.22,0.049,0.397,0.099,0.532,0.151c0.134,0.053,0.249,0.135,0.342,0.246
		c0.093,0.112,0.14,0.266,0.14,0.46c0,0.239-0.086,0.434-0.258,0.583s-0.398,0.224-0.678,0.224c-0.336,0-0.611-0.085-0.826-0.255
		s-0.343-0.402-0.384-0.697h0.252c0.022,0.217,0.117,0.396,0.283,0.54c0.166,0.145,0.393,0.216,0.681,0.216
		c0.216,0,0.386-0.057,0.507-0.171c0.122-0.113,0.182-0.262,0.182-0.445c0-0.146-0.039-0.263-0.118-0.35
		c-0.078-0.088-0.176-0.152-0.294-0.193s-0.274-0.084-0.468-0.129c-0.221-0.053-0.395-0.104-0.524-0.154s-0.239-0.129-0.331-0.235
		c-0.092-0.106-0.138-0.251-0.138-0.435c0-0.246,0.088-0.443,0.264-0.591c0.175-0.147,0.411-0.222,0.706-0.222
		C22.601,70.825,22.856,70.91,23.051,71.08z"/>
	<path d="M25.824,71.08c0.194,0.17,0.31,0.403,0.347,0.698h-0.241c-0.022-0.217-0.109-0.397-0.261-0.541s-0.355-0.216-0.613-0.216
		c-0.228,0-0.406,0.056-0.535,0.168s-0.193,0.262-0.193,0.448c0,0.139,0.038,0.249,0.115,0.331s0.17,0.143,0.28,0.182
		s0.264,0.083,0.462,0.132c0.22,0.049,0.397,0.099,0.532,0.151c0.134,0.053,0.249,0.135,0.342,0.246
		c0.093,0.112,0.14,0.266,0.14,0.46c0,0.239-0.086,0.434-0.258,0.583s-0.398,0.224-0.678,0.224c-0.336,0-0.611-0.085-0.826-0.255
		s-0.343-0.402-0.384-0.697h0.252c0.022,0.217,0.117,0.396,0.283,0.54c0.166,0.145,0.393,0.216,0.681,0.216
		c0.216,0,0.386-0.057,0.507-0.171c0.122-0.113,0.182-0.262,0.182-0.445c0-0.146-0.039-0.263-0.118-0.35
		c-0.078-0.088-0.176-0.152-0.294-0.193s-0.274-0.084-0.468-0.129c-0.221-0.053-0.395-0.104-0.524-0.154s-0.239-0.129-0.331-0.235
		c-0.092-0.106-0.138-0.251-0.138-0.435c0-0.246,0.088-0.443,0.264-0.591c0.175-0.147,0.411-0.222,0.706-0.222
		C25.374,70.825,25.63,70.91,25.824,71.08z"/>
	<path d="M26.936,69.797c0.04-0.039,0.091-0.059,0.154-0.059s0.116,0.02,0.157,0.059c0.041,0.04,0.062,0.089,0.062,0.148
		c0,0.063-0.021,0.115-0.062,0.154s-0.093,0.059-0.157,0.059s-0.115-0.02-0.154-0.059c-0.039-0.039-0.059-0.091-0.059-0.154
		C26.877,69.886,26.897,69.837,26.936,69.797z M27.219,70.864v3.043h-0.252v-3.043H27.219z"/>
	<path d="M30.256,71.013c0.228,0.126,0.406,0.306,0.535,0.541s0.193,0.512,0.193,0.829c0,0.321-0.064,0.6-0.193,0.835
		s-0.307,0.416-0.535,0.541s-0.485,0.188-0.773,0.188c-0.284,0-0.54-0.063-0.768-0.188c-0.228-0.125-0.407-0.307-0.538-0.544
		c-0.131-0.236-0.196-0.515-0.196-0.832s0.065-0.594,0.196-0.829s0.31-0.415,0.538-0.541c0.228-0.125,0.484-0.188,0.768-0.188
		C29.771,70.825,30.028,70.888,30.256,71.013z M28.87,71.195c-0.188,0.097-0.341,0.245-0.457,0.445s-0.174,0.447-0.174,0.742
		c0,0.296,0.058,0.544,0.174,0.745c0.116,0.202,0.268,0.352,0.457,0.448c0.188,0.098,0.393,0.146,0.614,0.146
		c0.22,0,0.425-0.049,0.613-0.146c0.188-0.097,0.341-0.246,0.457-0.448c0.116-0.201,0.174-0.449,0.174-0.745
		c0-0.295-0.057-0.542-0.171-0.742s-0.265-0.349-0.454-0.445c-0.189-0.098-0.395-0.146-0.619-0.146
		C29.263,71.05,29.058,71.098,28.87,71.195z"/>
	<path d="M34.033,71.14c0.224,0.224,0.336,0.555,0.336,0.991v1.776h-0.252v-1.765c0-0.366-0.092-0.646-0.275-0.838
		s-0.433-0.289-0.75-0.289c-0.329,0-0.593,0.107-0.793,0.322s-0.3,0.531-0.3,0.95v1.619h-0.252v-3.043h0.252v0.802
		c0.075-0.284,0.217-0.499,0.429-0.645c0.211-0.146,0.455-0.219,0.731-0.219C33.518,70.803,33.809,70.915,34.033,71.14z"/>
	<path d="M37.389,71.086c0.228,0.174,0.383,0.402,0.465,0.687v-0.908h0.252v3.043h-0.252v-0.908
		c-0.082,0.284-0.237,0.513-0.465,0.687c-0.228,0.174-0.508,0.261-0.841,0.261c-0.284,0-0.535-0.063-0.753-0.188
		c-0.219-0.125-0.39-0.307-0.513-0.544c-0.124-0.236-0.185-0.515-0.185-0.832s0.062-0.594,0.185-0.829
		c0.123-0.235,0.294-0.415,0.513-0.541c0.218-0.125,0.47-0.188,0.753-0.188C36.881,70.825,37.161,70.912,37.389,71.086z
		 M35.694,71.408c-0.226,0.239-0.339,0.564-0.339,0.975c0,0.415,0.112,0.742,0.336,0.98c0.224,0.239,0.528,0.359,0.913,0.359
		c0.239,0,0.454-0.056,0.645-0.166c0.19-0.109,0.339-0.267,0.445-0.471c0.106-0.203,0.16-0.438,0.16-0.703
		c0-0.265-0.053-0.498-0.16-0.7c-0.106-0.201-0.255-0.357-0.445-0.468s-0.405-0.165-0.645-0.165
		C36.224,71.05,35.92,71.169,35.694,71.408z"/>
	<path d="M39.395,71.095v1.955c0,0.243,0.043,0.408,0.129,0.496s0.237,0.132,0.454,0.132h0.319v0.229H39.95
		c-0.28,0-0.484-0.065-0.613-0.196s-0.193-0.351-0.193-0.661v-1.955h-0.482v-0.23h0.482v-0.772h0.252v0.772h0.902v0.23H39.395z"/>
	<path d="M43.065,73.501c0.209-0.155,0.336-0.367,0.381-0.636h0.263c-0.056,0.325-0.208,0.586-0.457,0.784
		c-0.249,0.198-0.565,0.297-0.95,0.297c-0.288,0-0.543-0.063-0.765-0.188s-0.397-0.306-0.524-0.541s-0.19-0.514-0.19-0.835
		c0-0.317,0.063-0.594,0.19-0.829s0.302-0.415,0.524-0.541c0.222-0.125,0.478-0.188,0.765-0.188c0.295,0,0.55,0.063,0.765,0.188
		c0.215,0.126,0.377,0.29,0.487,0.493c0.11,0.204,0.166,0.422,0.166,0.653c0,0.093-0.009,0.192-0.028,0.297h-2.617
		c0.003,0.284,0.063,0.522,0.176,0.714c0.114,0.193,0.261,0.335,0.443,0.427c0.181,0.091,0.38,0.137,0.597,0.137
		C42.598,73.733,42.856,73.656,43.065,73.501z M41.698,71.173c-0.183,0.094-0.332,0.235-0.445,0.426s-0.173,0.426-0.176,0.706h2.398
		c0.015-0.28-0.032-0.517-0.14-0.709s-0.254-0.334-0.437-0.426s-0.381-0.137-0.594-0.137C42.083,71.033,41.881,71.079,41.698,71.173
		z"/>
	<path d="M48.17,71.086c0.228,0.174,0.383,0.402,0.465,0.687v-0.908h0.252v3.043h-0.252v-0.908
		c-0.082,0.284-0.237,0.513-0.465,0.687c-0.228,0.174-0.508,0.261-0.841,0.261c-0.284,0-0.535-0.063-0.753-0.188
		c-0.219-0.125-0.39-0.307-0.513-0.544c-0.124-0.236-0.185-0.515-0.185-0.832s0.062-0.594,0.185-0.829
		c0.123-0.235,0.294-0.415,0.513-0.541c0.218-0.125,0.47-0.188,0.753-0.188C47.662,70.825,47.942,70.912,48.17,71.086z
		 M46.475,71.408c-0.226,0.239-0.339,0.564-0.339,0.975c0,0.415,0.112,0.742,0.336,0.98c0.224,0.239,0.528,0.359,0.913,0.359
		c0.239,0,0.454-0.056,0.645-0.166c0.19-0.109,0.339-0.267,0.445-0.471c0.106-0.203,0.16-0.438,0.16-0.703
		c0-0.265-0.053-0.498-0.16-0.7c-0.106-0.201-0.255-0.357-0.445-0.468s-0.405-0.165-0.645-0.165
		C47.004,71.05,46.701,71.169,46.475,71.408z"/>
	<path d="M52.095,71.013c0.218,0.126,0.389,0.306,0.513,0.541c0.123,0.235,0.185,0.512,0.185,0.829s-0.062,0.596-0.185,0.832
		c-0.124,0.237-0.294,0.419-0.513,0.544c-0.219,0.125-0.47,0.188-0.754,0.188c-0.329,0-0.608-0.087-0.837-0.261
		c-0.23-0.174-0.386-0.402-0.468-0.687v0.908H49.79v-4.146h0.246v2.012c0.083-0.284,0.238-0.513,0.468-0.687
		c0.229-0.174,0.509-0.261,0.837-0.261C51.625,70.825,51.876,70.888,52.095,71.013z M50.646,71.215
		c-0.19,0.11-0.34,0.267-0.448,0.468c-0.108,0.202-0.163,0.436-0.163,0.7c0,0.266,0.054,0.5,0.163,0.703
		c0.108,0.204,0.258,0.361,0.448,0.471c0.19,0.11,0.405,0.166,0.645,0.166c0.381,0,0.685-0.12,0.911-0.359
		c0.226-0.238,0.339-0.565,0.339-0.98c0-0.41-0.113-0.735-0.339-0.975s-0.53-0.358-0.911-0.358
		C51.052,71.05,50.837,71.104,50.646,71.215z"/>
	<path d="M55.684,71.013c0.228,0.126,0.406,0.306,0.535,0.541s0.193,0.512,0.193,0.829c0,0.321-0.064,0.6-0.193,0.835
		s-0.307,0.416-0.535,0.541s-0.485,0.188-0.773,0.188c-0.284,0-0.54-0.063-0.768-0.188c-0.228-0.125-0.407-0.307-0.538-0.544
		c-0.131-0.236-0.196-0.515-0.196-0.832s0.065-0.594,0.196-0.829s0.31-0.415,0.538-0.541c0.228-0.125,0.484-0.188,0.768-0.188
		C55.198,70.825,55.456,70.888,55.684,71.013z M54.297,71.195c-0.188,0.097-0.341,0.245-0.457,0.445s-0.174,0.447-0.174,0.742
		c0,0.296,0.058,0.544,0.174,0.745c0.116,0.202,0.268,0.352,0.457,0.448c0.188,0.098,0.393,0.146,0.614,0.146
		c0.22,0,0.425-0.049,0.613-0.146c0.188-0.097,0.341-0.246,0.457-0.448c0.115-0.201,0.174-0.449,0.174-0.745
		c0-0.295-0.057-0.542-0.171-0.742c-0.114-0.2-0.265-0.349-0.454-0.445c-0.189-0.098-0.395-0.146-0.619-0.146
		C54.69,71.05,54.485,71.098,54.297,71.195z"/>
	<path d="M59.696,70.864v3.043h-0.258v-0.796c-0.075,0.28-0.218,0.493-0.429,0.639c-0.211,0.146-0.455,0.219-0.731,0.219
		c-0.354,0-0.645-0.112-0.868-0.336c-0.225-0.225-0.337-0.557-0.337-0.997v-1.771h0.247v1.766c0,0.362,0.092,0.64,0.274,0.832
		s0.434,0.288,0.751,0.288c0.332,0,0.598-0.107,0.796-0.322c0.197-0.214,0.297-0.531,0.297-0.949v-1.614H59.696z"/>
	<path d="M60.984,71.095v1.955c0,0.243,0.043,0.408,0.129,0.496s0.237,0.132,0.453,0.132h0.319v0.229h-0.347
		c-0.28,0-0.485-0.065-0.614-0.196s-0.193-0.351-0.193-0.661v-1.955H60.25v-0.23h0.481v-0.772h0.253v0.772h0.901v0.23H60.984z"/>
	<path d="M64.016,70.864l1.143,2.707l1.06-2.707h0.28l-1.766,4.478h-0.291l0.582-1.451l-1.288-3.026H64.016z"/>
	<path d="M69.171,71.013c0.228,0.126,0.406,0.306,0.535,0.541s0.193,0.512,0.193,0.829c0,0.321-0.064,0.6-0.193,0.835
		s-0.308,0.416-0.535,0.541s-0.485,0.188-0.773,0.188c-0.283,0-0.539-0.063-0.768-0.188c-0.228-0.125-0.407-0.307-0.538-0.544
		c-0.131-0.236-0.195-0.515-0.195-0.832s0.064-0.594,0.195-0.829s0.311-0.415,0.538-0.541c0.229-0.125,0.484-0.188,0.768-0.188
		C68.686,70.825,68.943,70.888,69.171,71.013z M67.784,71.195c-0.188,0.097-0.341,0.245-0.457,0.445
		c-0.115,0.2-0.173,0.447-0.173,0.742c0,0.296,0.058,0.544,0.173,0.745c0.116,0.202,0.269,0.352,0.457,0.448
		c0.188,0.098,0.394,0.146,0.613,0.146c0.221,0,0.425-0.049,0.614-0.146c0.188-0.097,0.341-0.246,0.456-0.448
		c0.116-0.201,0.174-0.449,0.174-0.745c0-0.295-0.057-0.542-0.171-0.742s-0.266-0.349-0.454-0.445
		c-0.188-0.098-0.395-0.146-0.619-0.146C68.178,71.05,67.973,71.098,67.784,71.195z"/>
	<path d="M73.183,70.864v3.043h-0.258v-0.796c-0.075,0.28-0.218,0.493-0.429,0.639c-0.211,0.146-0.455,0.219-0.731,0.219
		c-0.354,0-0.645-0.112-0.868-0.336c-0.225-0.225-0.337-0.557-0.337-0.997v-1.771h0.247v1.766c0,0.362,0.092,0.64,0.274,0.832
		s0.434,0.288,0.751,0.288c0.332,0,0.598-0.107,0.796-0.322c0.197-0.214,0.297-0.531,0.297-0.949v-1.614H73.183z"/>
	<path d="M74.752,70.99c0.197-0.125,0.449-0.188,0.756-0.188v0.274h-0.084c-0.307,0-0.564,0.086-0.773,0.258
		s-0.313,0.45-0.313,0.835v1.737h-0.252v-3.043h0.252v0.673C74.415,71.298,74.554,71.116,74.752,70.99z"/>
	<path d="M79.915,71.013c0.219,0.126,0.39,0.306,0.513,0.541s0.185,0.512,0.185,0.829s-0.062,0.596-0.185,0.832
		c-0.123,0.237-0.294,0.419-0.513,0.544s-0.47,0.188-0.754,0.188c-0.329,0-0.607-0.087-0.838-0.261
		c-0.229-0.174-0.386-0.402-0.468-0.687v2.343h-0.246v-4.478h0.246v0.908c0.082-0.284,0.238-0.513,0.468-0.687
		c0.23-0.174,0.509-0.261,0.838-0.261C79.445,70.825,79.696,70.888,79.915,71.013z M78.467,71.215
		c-0.19,0.11-0.34,0.267-0.448,0.468c-0.108,0.202-0.163,0.436-0.163,0.7c0,0.266,0.055,0.5,0.163,0.703
		c0.108,0.204,0.258,0.361,0.448,0.471c0.19,0.11,0.405,0.166,0.644,0.166c0.382,0,0.685-0.12,0.911-0.359
		c0.226-0.238,0.339-0.565,0.339-0.98c0-0.41-0.113-0.735-0.339-0.975c-0.227-0.239-0.529-0.358-0.911-0.358
		C78.872,71.05,78.657,71.104,78.467,71.215z"/>
	<path d="M83.521,71.086c0.229,0.174,0.383,0.402,0.466,0.687v-0.908h0.252v3.043h-0.252v-0.908
		c-0.083,0.284-0.237,0.513-0.466,0.687c-0.228,0.174-0.508,0.261-0.84,0.261c-0.284,0-0.535-0.063-0.754-0.188
		s-0.39-0.307-0.513-0.544c-0.123-0.236-0.185-0.515-0.185-0.832s0.062-0.594,0.185-0.829s0.294-0.415,0.513-0.541
		c0.219-0.125,0.47-0.188,0.754-0.188C83.013,70.825,83.293,70.912,83.521,71.086z M81.826,71.408
		c-0.227,0.239-0.339,0.564-0.339,0.975c0,0.415,0.111,0.742,0.336,0.98c0.224,0.239,0.528,0.359,0.913,0.359
		c0.239,0,0.454-0.056,0.645-0.166c0.19-0.109,0.339-0.267,0.445-0.471c0.106-0.203,0.16-0.438,0.16-0.703
		c0-0.265-0.054-0.498-0.16-0.7c-0.106-0.201-0.255-0.357-0.445-0.468s-0.405-0.165-0.645-0.165
		C82.355,71.05,82.052,71.169,81.826,71.408z"/>
	<path d="M86.771,71.08c0.194,0.17,0.311,0.403,0.348,0.698h-0.241c-0.021-0.217-0.108-0.397-0.26-0.541s-0.356-0.216-0.614-0.216
		c-0.228,0-0.406,0.056-0.535,0.168s-0.193,0.262-0.193,0.448c0,0.139,0.039,0.249,0.115,0.331s0.17,0.143,0.28,0.182
		s0.265,0.083,0.462,0.132c0.221,0.049,0.398,0.099,0.532,0.151c0.135,0.053,0.249,0.135,0.342,0.246
		c0.094,0.112,0.141,0.266,0.141,0.46c0,0.239-0.086,0.434-0.258,0.583s-0.397,0.224-0.678,0.224c-0.337,0-0.612-0.085-0.827-0.255
		S85.041,73.289,85,72.994h0.253c0.021,0.217,0.116,0.396,0.282,0.54c0.166,0.145,0.394,0.216,0.681,0.216
		c0.217,0,0.386-0.057,0.508-0.171c0.121-0.113,0.182-0.262,0.182-0.445c0-0.146-0.039-0.263-0.117-0.35
		c-0.079-0.088-0.177-0.152-0.295-0.193c-0.117-0.041-0.273-0.084-0.468-0.129c-0.22-0.053-0.395-0.104-0.523-0.154
		s-0.239-0.129-0.331-0.235c-0.091-0.106-0.137-0.251-0.137-0.435c0-0.246,0.088-0.443,0.263-0.591
		c0.176-0.147,0.411-0.222,0.706-0.222C86.32,70.825,86.577,70.91,86.771,71.08z"/>
	<path d="M89.544,71.08c0.194,0.17,0.311,0.403,0.348,0.698H89.65c-0.021-0.217-0.108-0.397-0.26-0.541s-0.356-0.216-0.614-0.216
		c-0.228,0-0.406,0.056-0.535,0.168s-0.193,0.262-0.193,0.448c0,0.139,0.039,0.249,0.115,0.331s0.17,0.143,0.28,0.182
		s0.265,0.083,0.462,0.132c0.221,0.049,0.398,0.099,0.532,0.151c0.135,0.053,0.249,0.135,0.342,0.246
		c0.094,0.112,0.141,0.266,0.141,0.46c0,0.239-0.086,0.434-0.258,0.583s-0.397,0.224-0.678,0.224c-0.337,0-0.612-0.085-0.827-0.255
		s-0.343-0.402-0.384-0.697h0.253c0.021,0.217,0.116,0.396,0.282,0.54c0.166,0.145,0.394,0.216,0.681,0.216
		c0.217,0,0.386-0.057,0.508-0.171c0.121-0.113,0.182-0.262,0.182-0.445c0-0.146-0.039-0.263-0.117-0.35
		c-0.079-0.088-0.177-0.152-0.295-0.193c-0.117-0.041-0.273-0.084-0.468-0.129c-0.22-0.053-0.395-0.104-0.523-0.154
		s-0.239-0.129-0.331-0.235c-0.091-0.106-0.137-0.251-0.137-0.435c0-0.246,0.088-0.443,0.263-0.591
		c0.176-0.147,0.411-0.222,0.706-0.222C89.094,70.825,89.351,70.91,89.544,71.08z"/>
	<path d="M90.656,69.797c0.039-0.039,0.091-0.059,0.154-0.059s0.116,0.02,0.157,0.059c0.041,0.04,0.062,0.089,0.062,0.148
		c0,0.063-0.021,0.115-0.062,0.154s-0.094,0.059-0.157,0.059s-0.115-0.02-0.154-0.059s-0.059-0.091-0.059-0.154
		C90.598,69.886,90.617,69.837,90.656,69.797z M90.939,70.864v3.043h-0.252v-3.043H90.939z"/>
	<path d="M93.976,71.013c0.228,0.126,0.406,0.306,0.535,0.541s0.193,0.512,0.193,0.829c0,0.321-0.064,0.6-0.193,0.835
		s-0.308,0.416-0.535,0.541s-0.485,0.188-0.773,0.188c-0.283,0-0.539-0.063-0.768-0.188c-0.228-0.125-0.407-0.307-0.538-0.544
		c-0.131-0.236-0.195-0.515-0.195-0.832s0.064-0.594,0.195-0.829s0.311-0.415,0.538-0.541c0.229-0.125,0.484-0.188,0.768-0.188
		C93.49,70.825,93.748,70.888,93.976,71.013z M92.589,71.195c-0.188,0.097-0.341,0.245-0.457,0.445
		c-0.115,0.2-0.173,0.447-0.173,0.742c0,0.296,0.058,0.544,0.173,0.745c0.116,0.202,0.269,0.352,0.457,0.448
		c0.188,0.098,0.394,0.146,0.613,0.146c0.221,0,0.425-0.049,0.614-0.146c0.188-0.097,0.341-0.246,0.456-0.448
		c0.116-0.201,0.174-0.449,0.174-0.745c0-0.295-0.057-0.542-0.171-0.742s-0.266-0.349-0.454-0.445
		c-0.188-0.098-0.395-0.146-0.619-0.146C92.982,71.05,92.777,71.098,92.589,71.195z"/>
	<path d="M97.753,71.14c0.224,0.224,0.336,0.555,0.336,0.991v1.776h-0.252v-1.765c0-0.366-0.092-0.646-0.274-0.838
		c-0.184-0.192-0.434-0.289-0.751-0.289c-0.329,0-0.593,0.107-0.793,0.322s-0.3,0.531-0.3,0.95v1.619h-0.252v-3.043h0.252v0.802
		c0.074-0.284,0.218-0.499,0.429-0.645s0.455-0.219,0.731-0.219C97.237,70.803,97.528,70.915,97.753,71.14z"/>
</g>
</svg>
